<svg width="44" height="40" viewBox="0 0 44 40" fill="none" xmlns="http://www.w3.org/2000/svg">
<g clip-path="url(#clip0)">
<path fill-rule="evenodd" clip-rule="evenodd" d="M40.9085 7.91211H3.72293C2.6347 7.91211 1.75238 8.79738 1.75238 9.88925V34.8914C1.75238 35.9833 2.6347 36.8686 3.72293 36.8686H40.9085C41.9967 36.8686 42.879 35.9833 42.879 34.8914V9.88925C42.879 8.79738 41.9967 7.91211 40.9085 7.91211Z" fill="white"/>
<path fill-rule="evenodd" clip-rule="evenodd" d="M30.6973 11.8017C31.9441 19.0276 31.9441 26.2535 30.6973 33.479C22.3832 34.5634 14.0681 34.5634 5.75394 33.479C4.50756 26.2535 4.50756 19.0276 5.75394 11.8017C14.0681 10.7181 22.3832 10.7181 30.6973 11.8017Z" fill="#AB651E"/>
<path fill-rule="evenodd" clip-rule="evenodd" d="M30.6973 11.8017C22.3832 10.7181 14.0681 10.7181 5.75394 11.8017C4.50756 19.0276 4.50756 26.2535 5.75394 33.479C14.0681 34.5634 22.3832 34.5634 30.6973 33.479C31.9441 26.2535 31.9441 19.0276 30.6973 11.8017Z" stroke="#1C1F34" stroke-width="3" stroke-linecap="round" stroke-linejoin="round"/>
<path fill-rule="evenodd" clip-rule="evenodd" d="M40.9085 7.91211H3.72293C2.6347 7.91211 1.75238 8.79738 1.75238 9.88925V34.8914C1.75238 35.9833 2.6347 36.8686 3.72293 36.8686H40.9085C41.9967 36.8686 42.879 35.9833 42.879 34.8914V9.88925C42.879 8.79738 41.9967 7.91211 40.9085 7.91211Z" stroke="#1C1F34" stroke-width="3" stroke-linecap="round" stroke-linejoin="round"/>
<path fill-rule="evenodd" clip-rule="evenodd" d="M7.27063 39.2317H3.94286L3.50476 36.9231H7.70872L7.27063 39.2317Z" fill="#D6D7E0"/>
<path fill-rule="evenodd" clip-rule="evenodd" d="M7.27063 39.2317H3.94286L3.50476 36.9231H7.70872L7.27063 39.2317Z" stroke="#1C1F34" stroke-width="3" stroke-linecap="round" stroke-linejoin="round"/>
<path d="M0.87619 39.3406H42.9333" stroke="#1C1F34" stroke-width="3" stroke-linecap="round" stroke-linejoin="round"/>
<path fill-rule="evenodd" clip-rule="evenodd" d="M41.004 39.2317H37.6762L37.2381 36.9231H41.4421L41.004 39.2317Z" fill="#D6D7E0"/>
<path fill-rule="evenodd" clip-rule="evenodd" d="M41.004 39.2317H37.6762L37.2381 36.9231H41.4421L41.004 39.2317Z" stroke="#1C1F34" stroke-width="3" stroke-linecap="round" stroke-linejoin="round"/>
<path fill-rule="evenodd" clip-rule="evenodd" d="M35.0476 33.5322H39.2919V26.3735H35.0476V33.5322Z" stroke="#1C1F34" stroke-width="1.5" stroke-linecap="round" stroke-linejoin="round"/>
<path fill-rule="evenodd" clip-rule="evenodd" d="M39.2919 20.5907C39.2919 19.4148 38.3417 18.4614 37.1698 18.4614C35.9979 18.4614 35.0476 19.4148 35.0476 20.5907C35.0476 21.7665 35.9979 22.7199 37.1698 22.7199C38.3417 22.7199 39.2919 21.7665 39.2919 20.5907Z" stroke="#1C1F34" stroke-width="1.5" stroke-linecap="round" stroke-linejoin="round"/>
<path fill-rule="evenodd" clip-rule="evenodd" d="M39.2919 13.9974C39.2919 12.8216 38.3417 11.8682 37.1698 11.8682C35.9979 11.8682 35.0476 12.8216 35.0476 13.9974C35.0476 15.1732 35.9979 16.1266 37.1698 16.1266C38.3417 16.1266 39.2919 15.1732 39.2919 13.9974Z" stroke="#1C1F34" stroke-width="1.5" stroke-linecap="round" stroke-linejoin="round"/>
<path d="M20.9453 11.4285V14.0302L19.2762 16.6395L20.1108 18.4812V21.0126L22.3503 22.7397L23.7277 18.4812L26.4425 17.6021" stroke="#1C1F34" stroke-width="1.5" stroke-linecap="round" stroke-linejoin="round"/>
<path d="M31.4176 19.7803L27.7078 20.6172L25.7604 22.7464H22.3429L23.9056 26.0409L27.3372 27.3469L26.4351 30.3091L27.8007 33.4484" stroke="#1C1F34" stroke-width="1.5" stroke-linecap="round" stroke-linejoin="round"/>
<path fill-rule="evenodd" clip-rule="evenodd" d="M24.4549 26.1515L26.3098 22.4175L22.3429 22.6575L24.4549 26.1515Z" fill="#1C1F34"/>
<path d="M12.2487 33.4695L11.8106 31.1231L10.9524 30.7693" stroke="#1C1F34" stroke-width="1.5" stroke-linecap="round" stroke-linejoin="round"/>
<path d="M26.5065 11.8682L25.8476 12.9363" stroke="#1C1F34" stroke-width="1.5" stroke-linecap="round" stroke-linejoin="round"/>
<path d="M23.6571 6.08486L28.3969 0.87915" stroke="#1C1F34" stroke-width="3" stroke-linecap="round" stroke-linejoin="round"/>
<path fill-rule="evenodd" clip-rule="evenodd" d="M29.1846 1.01495C29.1846 0.454506 28.7316 0 28.173 0C27.6145 0 27.1619 0.454506 27.1619 1.01495C27.1619 1.57538 27.6145 2.02989 28.173 2.02989C28.7316 2.02989 29.1846 1.57538 29.1846 1.01495Z" fill="#1C1F34"/>
<path d="M21.3874 6.08486L16.6476 0.87915" stroke="#1C1F34" stroke-width="3" stroke-linecap="round" stroke-linejoin="round"/>
<path fill-rule="evenodd" clip-rule="evenodd" d="M15.7714 1.01495C15.7714 0.454506 16.2244 0 16.783 0C17.3416 0 17.7941 0.454506 17.7941 1.01495C17.7941 1.57538 17.3416 2.02989 16.783 2.02989C16.2244 2.02989 15.7714 1.57538 15.7714 1.01495Z" fill="#1C1F34"/>
<path fill-rule="evenodd" clip-rule="evenodd" d="M24.8899 7.21194C24.8899 6.38469 23.8293 5.71436 22.5212 5.71436C21.213 5.71436 20.1524 6.38469 20.1524 7.21194" fill="white"/>
<path d="M24.8899 7.6515C24.8899 6.58161 23.8293 5.71436 22.5212 5.71436C21.213 5.71436 20.1524 6.58161 20.1524 7.6515" stroke="#1C1F34" stroke-width="3" stroke-linecap="round" stroke-linejoin="round"/>
</g>
<defs>
<clipPath id="clip0">
<rect width="43.8095" height="40" fill="white"/>
</clipPath>
</defs>
</svg>